%YAML 1.1
%TAG !u! tag:unity3d.com,2011:
--- !u!21 &2100000
Material:
  serializedVersion: 8
  m_ObjectHideFlags: 0
  m_CorrespondingSourceObject: {fileID: 0}
  m_PrefabInstance: {fileID: 0}
  m_PrefabAsset: {fileID: 0}
  m_Name: M_OnionLeaf_01
  m_Shader: {fileID: -6465566751694194690, guid: 4058c612252d4bc47ba17fb221b0aa5f, type: 3}
  m_Parent: {fileID: 0}
  m_ModifiedSerializedProperties: 0
  m_ValidKeywords: []
  m_InvalidKeywords: []
  m_LightmapFlags: 4
  m_EnableInstancingVariants: 0
  m_DoubleSidedGI: 0
  m_CustomRenderQueue: -1
  stringTagMap: {}
  disabledShaderPasses: []
  m_LockedProperties: 
  m_SavedProperties:
    serializedVersion: 3
    m_TexEnvs:
    - Texture2D_a027d1b6e0f34d3da2316bc18f3ae780:
        m_Texture: {fileID: 2800000, guid: 93290891119df164f812a0ccb6625781, type: 3}
        m_Scale: {x: 1, y: 1}
        m_Offset: {x: 0, y: 0}
    - Texture2D_abf9952ade9c4b54a8681582e6b913c6:
        m_Texture: {fileID: 2800000, guid: a9c9797dfb4a298478d0ecba09f7d421, type: 3}
        m_Scale: {x: 1, y: 1}
        m_Offset: {x: 0, y: 0}
    - Texture2D_cadc3102b2f04155bdb1860b970f604d:
        m_Texture: {fileID: 2800000, guid: 15512894eb6b43345a6af499ca905721, type: 3}
        m_Scale: {x: 1, y: 1}
        m_Offset: {x: 0, y: 0}
    - _SampleTexture2D_74724a3e2ce14c07a04d8efbdb064c79_Texture_1:
        m_Texture: {fileID: 2800000, guid: bc7e9fb5094fff044bf91b87a5b92ddb, type: 3}
        m_Scale: {x: 1, y: 1}
        m_Offset: {x: 0, y: 0}
    - _SampleTexture2D_c2ce8b9f6cad47c6afd87ae20d9ef91e_Texture_1:
        m_Texture: {fileID: 2800000, guid: 193b816b2948d464593f54117cf42bdc, type: 3}
        m_Scale: {x: 1, y: 1}
        m_Offset: {x: 0, y: 0}
    - unity_Lightmaps:
        m_Texture: {fileID: 0}
        m_Scale: {x: 1, y: 1}
        m_Offset: {x: 0, y: 0}
    - unity_LightmapsInd:
        m_Texture: {fileID: 0}
        m_Scale: {x: 1, y: 1}
        m_Offset: {x: 0, y: 0}
    - unity_ShadowMasks:
        m_Texture: {fileID: 0}
        m_Scale: {x: 1, y: 1}
        m_Offset: {x: 0, y: 0}
    m_Ints: []
    m_Floats:
    - Vector1_1: 0.457
    - Vector1_464b046115bd40a4aac92e7604fc8ae7: 0
    - Vector1_8b37f33345394e67a10bed7a7998388f: 0.3
    - Vector1_a8f88444f28d4026bd5fd16bb7b721c0: 0.2
    - Vector1_c0ed990076324e93a67f76c34e244cc3: 4.61
    - _QueueControl: 0
    - _QueueOffset: 0
    m_Colors:
    - Vector2_04ba3aac72e34cdfbd1bb62fb5368efb: {r: 1.5, g: 0, b: 0, a: 0}
  m_BuildTextureStacks: []
--- !u!114 &453851906700091221
MonoBehaviour:
  m_ObjectHideFlags: 11
  m_CorrespondingSourceObject: {fileID: 0}
  m_PrefabInstance: {fileID: 0}
  m_PrefabAsset: {fileID: 0}
  m_GameObject: {fileID: 0}
  m_Enabled: 1
  m_EditorHideFlags: 0
  m_Script: {fileID: 11500000, guid: d0353a89b1f911e48b9e16bdc9f2e058, type: 3}
  m_Name: 
  m_EditorClassIdentifier: 
  version: 7
